<svg xmlns="http://www.w3.org/2000/svg" width="375" height="88" viewBox="0 0 375 88">
    <defs>
        <linearGradient id="0b47kt3b3a" x1="16.238%" x2="173.108%" y1="52.894%" y2="45.664%">
            <stop offset="0%" stop-color="#5ADCDC"/>
            <stop offset="100%" stop-color="#4F8DF0"/>
        </linearGradient>
    </defs>
    <g fill="none" fill-rule="evenodd">
        <path fill="url(#0b47kt3b3a)" d="M0 10.32C82.943-6.904 149.676-2.568 200.2 23.329 250.722 49.225 308.99 65.496 375 72.142V88H0V10.32z" transform="matrix(1 0 0 -1 0 88)"/>
    </g>
</svg>
